…
boot_straps
```

    ## # A tibble: 5,000 x 5
    ##    id    r_squared intercept  tmin log_coef
    ##    <chr>     <dbl>     <dbl> <dbl>    <dbl>
    ##  1 0001      0.914      7.29  1.04     2.02
    ##  2 0002      0.917      6.73  1.07     1.97
    ##  3 0003      0.905      7.14  1.02     1.99
    ##  4 0004      0.902      7.59  1.02     2.05
    ##  5 0005      0.909      7.57  1.03     2.05
    ##  6 0006      0.910      7.10  1.04     2.00
    ##  7 0007      0.908      7.44  1.04     2.04
    ##  8 0008      0.907      7.75  1.01     2.06
    ##  9 0009      0.909      7.17  1.04     2.01
    ## 10 0010      0.895      7.86  1.01     2.07
    ## # … with 4,990 more rows
…
